^C:\USERS\JESUS\SOURCE\REPOS\ALGORLAB01\TASK4\TASK4.CPP
C:\USERS\JESUS\SOURCE\REPOS\ALGORLAB01\TASK4\DEBUG\VC142.PDB
C:\USERS\JESUS\SOURCE\REPOS\ALGORLAB01\TASK4\DEBUG\VC142.IDB
C:\USERS\JESUS\SOURCE\REPOS\ALGORLAB01\TASK4\DEBUG\TASK4.OBJ
