^C:\USERS\JESUS\SOURCE\REPOS\ALGORLAB01\TASK3\TASK3.CPP
C:\USERS\JESUS\SOURCE\REPOS\ALGORLAB01\TASK3\DEBUG\VC142.PDB
C:\USERS\JESUS\SOURCE\REPOS\ALGORLAB01\TASK3\DEBUG\VC142.IDB
C:\USERS\JESUS\SOURCE\REPOS\ALGORLAB01\TASK3\DEBUG\TASK3.OBJ
